49.94289602
50.08486764
50.22683927
48.14783009
46.44611537
52.30584845
63.93001861
390.0913584
830.9813321
920.5206984
906.6347064
882.441185
773.4925469
592.6051341
602.5431481
639.0668081
507.3638128
306.6003721
171.328638
104.8489646
74.74903459
65.06384682
55.89598031
51.17202025
