1695
2640
2895
1710
1590
2340
2610
2370
3030
1650
3135
2580
1605
2010
3510
3585
1875
2445
2400
2280
2160
2595
1815
2820
2115
2145
1665
3375
1845
2955
1635
1755
2520
1530
2295
1695
2775
1680
1710
1815
3420
1560
1845
1845
1500
1635
2145
1770
1545
1890
2670
1905
2040
1785
1785
2190
1875
2205
2280
1785
3540
1800
1890
1560
2220
2910
1800
3105
1695
2055
1590
3495
1815
3450
1755
1875
1635
1860
1860
2055
1875
1725
1590
1530
1650
1710
2610
2190
3045
2745
2190
3375
1725
2355
1695
1560
2100
1800
1740
2205
1950
2580
1860
1845
2325
1695
1560
1770
3060
1740
1785
1935
2895
1575
2160
3195
1605
2535
1905
1815
2250
2520
2415
2670
1935
1590
1635
2760
1545
1515
2250
2220
3090
2535
2325
2370
2760
1755
1980
3060
2220
2790
2505
1725
2325
1725
1590
2400
1500
2835
2610
1920
2880
3090
3495
2940
2520
2190
2340
1755
1470
2370
3420
1530
2055
2580
1590
2610